Jeferson Dionei Sehnem
…
tourism_features <- tourism %>%
  features(Trips, feature_set(pkgs = "feasts"))

## Warning: `n_flat_spots()` was deprecated in feasts 0.1.5.
## i Please use `longest_flat_spot()` instead.
## i The deprecated feature was likely used in the fabletools package.
##   Please report the issue at <]8;;https://github.com/tidyverts/fabletools/issueshttps://github.com/tidyverts/fabletools/issues]8;;>.

tourism_features

## # A tibble: 304 x 51
##    Region  State Purpose trend~1 seaso~2 seaso~3 seaso~4 spiki~5 linea~6 curva~7
##    <chr>   <chr> <chr>     <dbl>   <dbl>   <dbl>   <dbl>   <dbl>   <dbl>   <dbl>
##  1 Adelai~ Sout~ Busine~   0.464   0.407       3       1 1.58e+2  -5.31   71.6  
##  2 Adelai~ Sout~ Holiday   0.554   0.619       1       2 9.17e+0  49.0    78.7  
##  3 Adelai~ Sout~ Other     0.746   0.202       2       1 2.10e+0  95.1    43.4  
##  4 Adelai~ Sout~ Visiti~   0.435   0.452       1       3 5.61e+1  34.6    71.4  
##  5 Adelai~ Sout~ Busine~   0.464   0.179       3       0 1.03e-1   0.968  -3.22 
##  6 Adelai~ Sout~ Holiday   0.528   0.296       2       1 1.77e-1  10.5    24.0  
##  7 Adelai~ Sout~ Other     0.593   0.404       2       2 4.44e-4   4.28    3.19 
##  8 Adelai~ Sout~ Visiti~   0.488   0.254       0       3 6.50e+0  34.2    -0.529
##  9 Alice ~ Nort~ Busine~   0.534   0.251       0       1 1.69e-1  23.8    19.5  
## 10 Alice ~ Nort~ Holiday   0.381   0.832       3       1 7.39e-1 -19.6    10.5  
## # ... with 294 more rows, 41 more variables: stl_e_acf1 <dbl>,
## #   stl_e_acf10 <dbl>, acf1 <dbl>, acf10 <dbl>, diff1_acf1 <dbl>,
## #   diff1_acf10 <dbl>, diff2_acf1 <dbl>, diff2_acf10 <dbl>, season_acf1 <dbl>,
## #   pacf5 <dbl>, diff1_pacf5 <dbl>, diff2_pacf5 <dbl>, season_pacf <dbl>,
## #   zero_run_mean <dbl>, nonzero_squared_cv <dbl>, zero_start_prop <dbl>,
## #   zero_end_prop <dbl>, lambda_guerrero <dbl>, kpss_stat <dbl>,
## #   kpss_pvalue <dbl>, pp_stat <dbl>, pp_pvalue <dbl>, ndiffs <int>, ...
…
##3

##Use uma abordagem baseada em recursos para procurar sries perifricas nos PBSdados. O que h de incomum nas sries que voc identifica como outliers.
PBS

## # A tsibble: 67,596 x 9 [1M]
## # Key:       Concession, Type, ATC1, ATC2 [336]
##       Month Concession   Type        ATC1  ATC1_desc ATC2  ATC2_~1 Scripts  Cost
##       <mth> <chr>        <chr>       <chr> <chr>     <chr> <chr>     <dbl> <dbl>
##  1 1991 jul Concessional Co-payments A     Alimenta~ A01   STOMAT~   18228 67877
##  2 1991 ago Concessional Co-payments A     Alimenta~ A01   STOMAT~   15327 57011
##  3 1991 set Concessional Co-payments A     Alimenta~ A01   STOMAT~   14775 55020
##  4 1991 out Concessional Co-payments A     Alimenta~ A01   STOMAT~   15380 57222
##  5 1991 nov Concessional Co-payments A     Alimenta~ A01   STOMAT~   14371 52120
##  6 1991 dez Concessional Co-payments A     Alimenta~ A01   STOMAT~   15028 54299
##  7 1992 jan Concessional Co-payments A     Alimenta~ A01   STOMAT~   11040 39753
##  8 1992 fev Concessional Co-payments A     Alimenta~ A01   STOMAT~   15165 54405
##  9 1992 mar Concessional Co-payments A     Alimenta~ A01   STOMAT~   16898 61108
## 10 1992 abr Concessional Co-payments A     Alimenta~ A01   STOMAT~   18141 65356
## # ... with 67,586 more rows, and abbreviated variable name 1: ATC2_desc
…
## Error in ar.burg.default(x, aic = aic, order.max = order.max, na.action = na.action,  : 
##   zero-variance series
## Error in ar.burg.default(x, aic = aic, order.max = order.max, na.action = na.action,  : 
##   zero-variance series

## New names:
## * `` -> `...26`

## Warning: 2 errors (1 unique) encountered for feature 7
## [2] ndice fora de limites

tourism_features

## # A tibble: 304 x 51
##    Region  State Purpose trend~1 seaso~2 seaso~3 seaso~4 spiki~5 linea~6 curva~7
##    <chr>   <chr> <chr>     <dbl>   <dbl>   <dbl>   <dbl>   <dbl>   <dbl>   <dbl>
##  1 Adelai~ Sout~ Busine~   0.464   0.407       3       1 1.58e+2  -5.31   71.6  
##  2 Adelai~ Sout~ Holiday   0.554   0.619       1       2 9.17e+0  49.0    78.7  
##  3 Adelai~ Sout~ Other     0.746   0.202       2       1 2.10e+0  95.1    43.4  
##  4 Adelai~ Sout~ Visiti~   0.435   0.452       1       3 5.61e+1  34.6    71.4  
##  5 Adelai~ Sout~ Busine~   0.464   0.179       3       0 1.03e-1   0.968  -3.22 
##  6 Adelai~ Sout~ Holiday   0.528   0.296       2       1 1.77e-1  10.5    24.0  
##  7 Adelai~ Sout~ Other     0.593   0.404       2       2 4.44e-4   4.28    3.19 
##  8 Adelai~ Sout~ Visiti~   0.488   0.254       0       3 6.50e+0  34.2    -0.529
##  9 Alice ~ Nort~ Busine~   0.534   0.251       0       1 1.69e-1  23.8    19.5  
## 10 Alice ~ Nort~ Holiday   0.381   0.832       3       1 7.39e-1 -19.6    10.5  
## # ... with 294 more rows, 41 more variables: stl_e_acf1 <dbl>,
## #   stl_e_acf10 <dbl>, acf1 <dbl>, acf10 <dbl>, diff1_acf1 <dbl>,
## #   diff1_acf10 <dbl>, diff2_acf1 <dbl>, diff2_acf10 <dbl>, season_acf1 <dbl>,
## #   pacf5 <dbl>, diff1_pacf5 <dbl>, diff2_pacf5 <dbl>, season_pacf <dbl>,
## #   zero_run_mean <dbl>, nonzero_squared_cv <dbl>, zero_start_prop <dbl>,
## #   zero_end_prop <dbl>, lambda_guerrero <dbl>, kpss_stat <dbl>,
## #   kpss_pvalue <dbl>, pp_stat <dbl>, pp_pvalue <dbl>, ndiffs <int>, ...
…
