Capitulo 9
…
#c)Vendas mensais a partir de souvenirs.
souvenirs

## # A tsibble: 84 x 2 [1M]
##       Month Sales
##       <mth> <dbl>
##  1 1987 jan 1665.
##  2 1987 fev 2398.
##  3 1987 mar 2841.
##  4 1987 abr 3547.
##  5 1987 mai 3753.
##  6 1987 jun 3715.
##  7 1987 jul 4350.
##  8 1987 ago 3566.
##  9 1987 set 5022.
## 10 1987 out 6423.
## # ... with 74 more rows
…
