Capitulo_8
…
##                 ME     RMSE      MAE       MPE     MAPE
## Test set -2.959135 4.090463 3.506668 -42.91336 46.58406

#d)Compare os resultados com os de um modelo ETS(A,A,N). (Lembre-se de que o modelo de tendncia usa um parmetro a mais do que o modelo mais simples.) Discuta os mritos dos dois mtodos de previso para esse #conjunto de dados.

modelo_aditive <- economia_brazil %>%
  model(
    multiplicative = ETS(Exports)
  )
modelo_aditive%>%
  forecast(economia_brazil)

## # A fable: 58 x 5 [1Y]
## # Key:     Country, .model [1]
##    Country .model          Year    Exports .mean
##    <fct>   <chr>          <dbl>     <dist> <dbl>
##  1 Brazil  multiplicative  1960 N(13, 2.5)  12.6
##  2 Brazil  multiplicative  1961 N(13, 4.2)  12.6
##  3 Brazil  multiplicative  1962 N(13, 5.9)  12.6
##  4 Brazil  multiplicative  1963 N(13, 7.6)  12.6
##  5 Brazil  multiplicative  1964 N(13, 9.2)  12.6
##  6 Brazil  multiplicative  1965  N(13, 11)  12.6
##  7 Brazil  multiplicative  1966  N(13, 13)  12.6
##  8 Brazil  multiplicative  1967  N(13, 14)  12.6
##  9 Brazil  multiplicative  1968  N(13, 16)  12.6
## 10 Brazil  multiplicative  1969  N(13, 18)  12.6
## # ... with 48 more rows
…
#10)Calcule o total de viagens domsticas noturnas pela Austrlia a partir do tourismconjunto de dados.
tourism

## # A tsibble: 24,320 x 5 [1Q]
## # Key:       Region, State, Purpose [304]
##    Quarter Region   State           Purpose  Trips
##      <qtr> <chr>    <chr>           <chr>    <dbl>
##  1 1998 Q1 Adelaide South Australia Business  135.
##  2 1998 Q2 Adelaide South Australia Business  110.
##  3 1998 Q3 Adelaide South Australia Business  166.
##  4 1998 Q4 Adelaide South Australia Business  127.
##  5 1999 Q1 Adelaide South Australia Business  137.
##  6 1999 Q2 Adelaide South Australia Business  200.
##  7 1999 Q3 Adelaide South Australia Business  169.
##  8 1999 Q4 Adelaide South Australia Business  134.
##  9 2000 Q1 Adelaide South Australia Business  154.
## 10 2000 Q2 Adelaide South Australia Business  169.
## # ... with 24,310 more rows
…
